%YAML 1.1
%TAG !u! tag:unity3d.com,2011:
--- !u!21 &2100000
Material:
  serializedVersion: 6
  m_ObjectHideFlags: 0
  m_PrefabParentObject: {fileID: 0}
  m_PrefabInternal: {fileID: 0}
  m_Name: House_inner
  m_Shader: {fileID: 4800000, guid: 5e34a73ca109940e595b0dbea95f98e9, type: 3}
  m_ShaderKeywords: LOD_FADE_CROSSFADE _ALPHATEST_ON _EMISSION
  m_LightmapFlags: 2
  m_EnableInstancingVariants: 0
  m_DoubleSidedGI: 0
  m_CustomRenderQueue: 2450
  stringTagMap:
    RenderType: TransparentCutout
  disabledShaderPasses: []
  m_SavedProperties:
    serializedVersion: 3
    m_TexEnvs:
    - _BumpMap:
        m_Texture: {fileID: 0}
        m_Scale: {x: 1, y: 1}
        m_Offset: {x: 0, y: 0}
    - _CombinedMap:
        m_Texture: {fileID: 0}
        m_Scale: {x: 1, y: 1}
        m_Offset: {x: 0, y: 0}
    - _DetailAlbedoMap:
        m_Texture: {fileID: 0}
        m_Scale: {x: 1, y: 1}
        m_Offset: {x: 0, y: 0}
    - _DetailMask:
        m_Texture: {fileID: 0}
        m_Scale: {x: 1, y: 1}
        m_Offset: {x: 0, y: 0}
    - _DetailNormalMap:
        m_Texture: {fileID: 0}
        m_Scale: {x: 1, y: 1}
        m_Offset: {x: 0, y: 0}
    - _DispTex:
        m_Texture: {fileID: 2800000, guid: fd05cd3bdae2e4a909729af47474deef, type: 3}
        m_Scale: {x: 5, y: 5}
        m_Offset: {x: 0, y: 0}
    - _EmissionMap:
        m_Texture: {fileID: 0}
        m_Scale: {x: 1, y: 1}
        m_Offset: {x: 0, y: 0}
    - _MainTex:
        m_Texture: {fileID: 2800000, guid: 27e4da14659fd7a4faf49a216708f987, type: 3}
        m_Scale: {x: 1, y: 1}
        m_Offset: {x: 0, y: 0}
    - _MetallicGlossMap:
        m_Texture: {fileID: 0}
        m_Scale: {x: 1, y: 1}
        m_Offset: {x: 0, y: 0}
    - _MetallicGlossMap2:
        m_Texture: {fileID: 0}
        m_Scale: {x: 1, y: 1}
        m_Offset: {x: 0, y: 0}
    - _NormalMap:
        m_Texture: {fileID: 2800000, guid: 34dd97e8a79584ac3bb524c198ec3b7f, type: 3}
        m_Scale: {x: 1, y: 1}
        m_Offset: {x: 0, y: 0}
    - _OcclusionMap:
        m_Texture: {fileID: 0}
        m_Scale: {x: 1, y: 1}
        m_Offset: {x: 0, y: 0}
    - _ParallaxMap:
        m_Texture: {fileID: 0}
        m_Scale: {x: 2, y: 2}
        m_Offset: {x: 0, y: 0}
    - _SpecGlossMap:
        m_Texture: {fileID: 0}
        m_Scale: {x: 1, y: 1}
        m_Offset: {x: 0, y: 0}
    - _SpecGlossMap2:
        m_Texture: {fileID: 0}
        m_Scale: {x: 1, y: 1}
        m_Offset: {x: 0, y: 0}
    m_Floats:
    - _BumpScale: 0.7
    - _Cull: 2
    - _CullShadowPass: 2
    - _Cutoff: 0.2
    - _DetailNormalMapScale: 0
    - _DiffuseScatteringBias: 0
    - _DiffuseScatteringBias2: 0
    - _DiffuseScatteringContraction: 10
    - _DiffuseScatteringContraction2: 8
    - _DiffuseScatteringEnabled: 0
    - _DispTiling: 2
    - _Displacement: 0.04
    - _DoubleSided: 0
    - _DstBlend: 0
    - _EdgeLength: 20
    - _EnableIndependentPuddleMaskTiling: 1
    - _EnablePOM: 0
    - _GlossMapScale: 1
    - _Glossiness: 0
    - _Glossiness2: 0.5
    - _GlossyReflections: 1
    - _HelpSnowMapping: 0
    - _Lighting: 0
    - _LinearSteps: 20
    - _Lux_FlowInterval: 1
    - _Lux_FlowNormalStrength: 1.13
    - _Lux_FlowNormalTiling: 3
    - _Lux_FlowRefraction: 0.045
    - _Lux_FlowSpeed: 0.48
    - _MaxDist: 10
    - _Metallic: 1
    - _Metallic2: 0
    - _MinDist: 5
    - _MixMappingControl: 0
    - _Mode: 1
    - _OcclusionStrength: 1
    - _Parallax: 0.005
    - _ParallaxTiling: 1
    - _ParallaxToBaseRatio: 1
    - _Phong: 0
    - _PuddleMask: 0
    - _PuddleMaskTiling: 0.5
    - _ScatteringPower: 4
    - _SmoothnessTextureChannel: 0
    - _Snow: 0
    - _SnowDetailStrength: 0.3
    - _SnowDetailTiling: 3
    - _SnowMapping: 0
    - _SnowMaskTiling: 0.2
    - _SnowNormalStrength: 0.63
    - _SnowOpacity: 0.5
    - _SnowSlopeDamp: 0.638
    - _SnowTiling: 2
    - _SpecularHighlights: 1
    - _SrcBlend: 1
    - _SyncWaterOfMaterials: 0
    - _Tess: 1
    - _TranslucencyStrength: 0.5
    - _UVSec: 0
    - _UseCombinedMap: 0
    - _UseMixMapping: 0
    - _UsePOM: 0
    - _WaterSlopeDamp: 0.5
    - _Wetness: 0
    - _ZWrite: 1
    m_Colors:
    - _Color: {r: 1, g: 1, b: 1, a: 1}
    - _Color2: {r: 1, g: 1, b: 1, a: 1}
    - _DiffuseScatteringCol: {r: 0, g: 0, b: 0, a: 1}
    - _DiffuseScatteringCol2: {r: 0, g: 0, b: 0, a: 1}
    - _EmissionColor: {r: 0.262, g: 0.20056552, b: 0, a: 1}
    - _ParallaxToBaseRatio: {r: 2, g: 2, b: 0, a: 0}
    - _SnowAccumulation: {r: 0, g: 0, b: 0, a: 0}
    - _SnowDetailTiling: {r: 4, g: 4, b: 0, a: 0}
    - _SnowMaskTiling: {r: 0.3, g: 0.3, b: 0, a: 0}
    - _SnowTiling: {r: 2, g: 2, b: 0, a: 0}
    - _SpecColor: {r: 0.5, g: 0.5, b: 0.5, a: 0.5}
    - _SpecColor2: {r: 0.2, g: 0.2, b: 0.2, a: 1}
    - _UVRatio: {r: 1, g: 1, b: 1, a: 0}
    - _WaterAccumulationCracksPuddles: {r: 0, g: 1, b: 0, a: 1}
    - _WaterAccumulationCracksPuddles2: {r: 0, g: 1, b: 0, a: 1}
    - _WaterColor: {r: 0, g: 0, b: 0, a: 0.693}
    - _WaterColor2: {r: 0, g: 0, b: 0, a: 0}
