%YAML 1.1
%TAG !u! tag:unity3d.com,2011:
--- !u!74 &7400000
AnimationClip:
  m_ObjectHideFlags: 0
  m_PrefabParentObject: {fileID: 0}
  m_PrefabInternal: {fileID: 0}
  m_Name: Drone_1 movement animation
  serializedVersion: 6
  m_Legacy: 0
  m_Compressed: 0
  m_UseHighQualityCurve: 1
  m_RotationCurves: []
  m_CompressedRotationCurves: []
  m_EulerCurves: []
  m_PositionCurves:
  - curve:
      serializedVersion: 2
      m_Curve:
      - serializedVersion: 2
        time: 0
        value: {x: -20.5, y: -2.34, z: 0}
        inSlope: {x: 9.075, y: -0.027500033, z: 0}
        outSlope: {x: 9.075, y: -0.027500033, z: 0}
        tangentMode: 0
      - serializedVersion: 2
        time: 4
        value: {x: 15.8, y: -2.45, z: 0}
        inSlope: {x: 7.1925, y: 0.67875, z: 0}
        outSlope: {x: 7.1925, y: 0.67875, z: 0}
        tangentMode: 0
      - serializedVersion: 2
        time: 6
        value: {x: 26.42, y: 0.32, z: 0}
        inSlope: {x: 6.054286, y: 0.6925, z: 0}
        outSlope: {x: 6.054286, y: 0.6925, z: 0}
        tangentMode: 0
      - serializedVersion: 2
        time: 13
        value: {x: 74.01, y: 0.32, z: 0}
        inSlope: {x: 6.956286, y: 0, z: 0}
        outSlope: {x: 6.956286, y: 0, z: 0}
        tangentMode: 0
      - serializedVersion: 2
        time: 18
        value: {x: 109.58, y: 0.32, z: 0}
        inSlope: {x: 10.945572, y: 0.4542857, z: 0}
        outSlope: {x: 10.945572, y: 0.4542857, z: 0}
        tangentMode: 0
      - serializedVersion: 2
        time: 21.5
        value: {x: 161.3, y: 3.5, z: 0}
        inSlope: {x: 14.7771435, y: 0.9085714, z: 0}
        outSlope: {x: 14.7771435, y: 0.9085714, z: 0}
        tangentMode: 0
      m_PreInfinity: 2
      m_PostInfinity: 2
      m_RotationOrder: 4
    path: 
  m_ScaleCurves: []
  m_FloatCurves: []
  m_PPtrCurves: []
  m_SampleRate: 60
  m_WrapMode: 0
  m_Bounds:
    m_Center: {x: 0, y: 0, z: 0}
    m_Extent: {x: 0, y: 0, z: 0}
  m_ClipBindingConstant:
    genericBindings:
    - serializedVersion: 2
      path: 0
      attribute: 1
      script: {fileID: 0}
      typeID: 4
      customType: 0
      isPPtrCurve: 0
    pptrCurveMapping: []
  m_AnimationClipSettings:
    serializedVersion: 2
    m_AdditiveReferencePoseClip: {fileID: 0}
    m_AdditiveReferencePoseTime: 0
    m_StartTime: 0
    m_StopTime: 21.5
    m_OrientationOffsetY: 0
    m_Level: 0
    m_CycleOffset: 0
    m_HasAdditiveReferencePose: 0
    m_LoopTime: 1
    m_LoopBlend: 0
    m_LoopBlendOrientation: 0
    m_LoopBlendPositionY: 0
    m_LoopBlendPositionXZ: 0
    m_KeepOriginalOrientation: 0
    m_KeepOriginalPositionY: 1
    m_KeepOriginalPositionXZ: 0
    m_HeightFromFeet: 0
    m_Mirror: 0
  m_EditorCurves:
  - curve:
      serializedVersion: 2
      m_Curve:
      - serializedVersion: 2
        time: 0
        value: -20.5
        inSlope: 9.075
        outSlope: 9.075
        tangentMode: 34
      - serializedVersion: 2
        time: 4
        value: 15.8
        inSlope: 7.1925
        outSlope: 7.1925
        tangentMode: 34
      - serializedVersion: 2
        time: 6
        value: 26.42
        inSlope: 6.054286
        outSlope: 6.054286
        tangentMode: 34
      - serializedVersion: 2
        time: 13
        value: 74.01
        inSlope: 6.956286
        outSlope: 6.956286
        tangentMode: 34
      - serializedVersion: 2
        time: 18
        value: 109.58
        inSlope: 10.945572
        outSlope: 10.945572
        tangentMode: 34
      - serializedVersion: 2
        time: 21.5
        value: 161.3
        inSlope: 14.7771435
        outSlope: 14.7771435
        tangentMode: 34
      m_PreInfinity: 2
      m_PostInfinity: 2
      m_RotationOrder: 4
    attribute: m_LocalPosition.x
    path: 
    classID: 4
    script: {fileID: 0}
  - curve:
      serializedVersion: 2
      m_Curve:
      - serializedVersion: 2
        time: 0
        value: -2.34
        inSlope: -0.027500033
        outSlope: -0.027500033
        tangentMode: 34
      - serializedVersion: 2
        time: 4
        value: -2.45
        inSlope: 0.67875
        outSlope: 0.67875
        tangentMode: 34
      - serializedVersion: 2
        time: 6
        value: 0.32
        inSlope: 0.6925
        outSlope: 0.6925
        tangentMode: 34
      - serializedVersion: 2
        time: 13
        value: 0.32
        inSlope: 0
        outSlope: 0
        tangentMode: 34
      - serializedVersion: 2
        time: 18
        value: 0.32
        inSlope: 0.4542857
        outSlope: 0.4542857
        tangentMode: 34
      - serializedVersion: 2
        time: 21.5
        value: 3.5
        inSlope: 0.9085714
        outSlope: 0.9085714
        tangentMode: 34
      m_PreInfinity: 2
      m_PostInfinity: 2
      m_RotationOrder: 4
    attribute: m_LocalPosition.y
    path: 
    classID: 4
    script: {fileID: 0}
  - curve:
      serializedVersion: 2
      m_Curve:
      - serializedVersion: 2
        time: 0
        value: 0
        inSlope: 0
        outSlope: 0
        tangentMode: 34
      - serializedVersion: 2
        time: 4
        value: 0
        inSlope: 0
        outSlope: 0
        tangentMode: 34
      - serializedVersion: 2
        time: 6
        value: 0
        inSlope: 0
        outSlope: 0
        tangentMode: 34
      - serializedVersion: 2
        time: 13
        value: 0
        inSlope: 0
        outSlope: 0
        tangentMode: 34
      - serializedVersion: 2
        time: 18
        value: 0
        inSlope: 0
        outSlope: 0
        tangentMode: 34
      - serializedVersion: 2
        time: 21.5
        value: 0
        inSlope: 0
        outSlope: 0
        tangentMode: 34
      m_PreInfinity: 2
      m_PostInfinity: 2
      m_RotationOrder: 4
    attribute: m_LocalPosition.z
    path: 
    classID: 4
    script: {fileID: 0}
  m_EulerEditorCurves: []
  m_HasGenericRootTransform: 1
  m_HasMotionFloatCurves: 0
  m_GenerateMotionCurves: 0
  m_Events: []
