%YAML 1.1
%TAG !u! tag:unity3d.com,2011:
--- !u!74 &7400000
AnimationClip:
  m_ObjectHideFlags: 0
  m_PrefabParentObject: {fileID: 0}
  m_PrefabInternal: {fileID: 0}
  m_Name: Drone_2 movement animation
  serializedVersion: 6
  m_Legacy: 0
  m_Compressed: 0
  m_UseHighQualityCurve: 1
  m_RotationCurves: []
  m_CompressedRotationCurves: []
  m_EulerCurves: []
  m_PositionCurves:
  - curve:
      serializedVersion: 2
      m_Curve:
      - serializedVersion: 2
        time: 0
        value: {x: 24.875175, y: -1.1506164, z: 0}
        inSlope: {x: -2.5225878, y: -0.5746918, z: 0}
        outSlope: {x: -2.5225878, y: -0.5746918, z: 0}
        tangentMode: 0
      - serializedVersion: 2
        time: 2
        value: {x: 19.83, y: -2.3, z: 0}
        inSlope: {x: -8.819101, y: 0, z: 0}
        outSlope: {x: -8.819101, y: 0, z: 0}
        tangentMode: 0
      - serializedVersion: 2
        time: 7.016667
        value: {x: -56, y: -5.3, z: 0}
        inSlope: {x: -7.557807, y: 0, z: 0}
        outSlope: {x: -7.557807, y: 0, z: 0}
        tangentMode: 0
      - serializedVersion: 2
        time: 7.0333333
        value: {x: -56, y: 19.5, z: 0}
        inSlope: {x: 33.536316, y: 0, z: 0}
        outSlope: {x: 33.536316, y: 0, z: 0}
        tangentMode: 0
      - serializedVersion: 2
        time: 10.016666
        value: {x: 144.1, y: 19.5, z: 0}
        inSlope: {x: 32.864075, y: -2.1371236, z: 0}
        outSlope: {x: 32.864075, y: -2.1371236, z: 0}
        tangentMode: 0
      - serializedVersion: 2
        time: 15
        value: {x: 137.4, y: -1.8, z: 0}
        inSlope: {x: -6.7457995, y: -2.2271235, z: 0}
        outSlope: {x: -6.7457995, y: -2.2271235, z: 0}
        tangentMode: 0
      - serializedVersion: 2
        time: 16.5
        value: {x: 119.17932, y: -2.07, z: 0}
        inSlope: {x: -14.8557625, y: -0.0043761358, z: 0}
        outSlope: {x: -14.8557625, y: -0.0043761358, z: 0}
        tangentMode: 0
      - serializedVersion: 2
        time: 21.483334
        value: {x: 31.65, y: -1.2166154, z: 0}
        inSlope: {x: -9.745451, y: 0.09500761, z: 0}
        outSlope: {x: -9.745451, y: 0.09500761, z: 0}
        tangentMode: 0
      - serializedVersion: 2
        time: 25
        value: {x: 24.875175, y: -1.1506164, z: 0}
        inSlope: {x: -1.9264904, y: 0.018767498, z: 0}
        outSlope: {x: -1.9264904, y: 0.018767498, z: 0}
        tangentMode: 0
      m_PreInfinity: 2
      m_PostInfinity: 2
      m_RotationOrder: 4
    path: 
  m_ScaleCurves: []
  m_FloatCurves: []
  m_PPtrCurves: []
  m_SampleRate: 60
  m_WrapMode: 0
  m_Bounds:
    m_Center: {x: 0, y: 0, z: 0}
    m_Extent: {x: 0, y: 0, z: 0}
  m_ClipBindingConstant:
    genericBindings:
    - serializedVersion: 2
      path: 0
      attribute: 1
      script: {fileID: 0}
      typeID: 4
      customType: 0
      isPPtrCurve: 0
    pptrCurveMapping: []
  m_AnimationClipSettings:
    serializedVersion: 2
    m_AdditiveReferencePoseClip: {fileID: 0}
    m_AdditiveReferencePoseTime: 0
    m_StartTime: 0
    m_StopTime: 25
    m_OrientationOffsetY: 0
    m_Level: 0
    m_CycleOffset: 0
    m_HasAdditiveReferencePose: 0
    m_LoopTime: 1
    m_LoopBlend: 0
    m_LoopBlendOrientation: 0
    m_LoopBlendPositionY: 0
    m_LoopBlendPositionXZ: 0
    m_KeepOriginalOrientation: 0
    m_KeepOriginalPositionY: 1
    m_KeepOriginalPositionXZ: 0
    m_HeightFromFeet: 0
    m_Mirror: 0
  m_EditorCurves:
  - curve:
      serializedVersion: 2
      m_Curve:
      - serializedVersion: 2
        time: 0
        value: 24.875175
        inSlope: -2.5225878
        outSlope: -2.5225878
        tangentMode: 34
      - serializedVersion: 2
        time: 2
        value: 19.83
        inSlope: -8.819101
        outSlope: -8.819101
        tangentMode: 34
      - serializedVersion: 2
        time: 7.016667
        value: -56
        inSlope: -7.557807
        outSlope: -7.557807
        tangentMode: 34
      - serializedVersion: 2
        time: 7.0333333
        value: -56
        inSlope: 33.536316
        outSlope: 33.536316
        tangentMode: 34
      - serializedVersion: 2
        time: 10.016666
        value: 144.1
        inSlope: 32.864075
        outSlope: 32.864075
        tangentMode: 34
      - serializedVersion: 2
        time: 15
        value: 137.4
        inSlope: -6.7457995
        outSlope: -6.7457995
        tangentMode: 34
      - serializedVersion: 2
        time: 16.5
        value: 119.17932
        inSlope: -14.8557625
        outSlope: -14.8557625
        tangentMode: 34
      - serializedVersion: 2
        time: 21.483334
        value: 31.65
        inSlope: -9.745451
        outSlope: -9.745451
        tangentMode: 34
      - serializedVersion: 2
        time: 25
        value: 24.875175
        inSlope: -1.9264904
        outSlope: -1.9264904
        tangentMode: 34
      m_PreInfinity: 2
      m_PostInfinity: 2
      m_RotationOrder: 4
    attribute: m_LocalPosition.x
    path: 
    classID: 4
    script: {fileID: 0}
  - curve:
      serializedVersion: 2
      m_Curve:
      - serializedVersion: 2
        time: 0
        value: -1.1506164
        inSlope: -0.5746918
        outSlope: -0.5746918
        tangentMode: 34
      - serializedVersion: 2
        time: 2
        value: -2.3
        inSlope: 0
        outSlope: 0
        tangentMode: 0
      - serializedVersion: 2
        time: 7.016667
        value: -5.3
        inSlope: 0
        outSlope: 0
        tangentMode: 0
      - serializedVersion: 2
        time: 7.0333333
        value: 19.5
        inSlope: 0
        outSlope: 0
        tangentMode: 0
      - serializedVersion: 2
        time: 10.016666
        value: 19.5
        inSlope: -2.1371236
        outSlope: -2.1371236
        tangentMode: 34
      - serializedVersion: 2
        time: 15
        value: -1.8
        inSlope: -2.2271235
        outSlope: -2.2271235
        tangentMode: 34
      - serializedVersion: 2
        time: 16.5
        value: -2.07
        inSlope: -0.0043761358
        outSlope: -0.0043761358
        tangentMode: 34
      - serializedVersion: 2
        time: 21.483334
        value: -1.2166154
        inSlope: 0.09500761
        outSlope: 0.09500761
        tangentMode: 34
      - serializedVersion: 2
        time: 25
        value: -1.1506164
        inSlope: 0.018767498
        outSlope: 0.018767498
        tangentMode: 34
      m_PreInfinity: 2
      m_PostInfinity: 2
      m_RotationOrder: 4
    attribute: m_LocalPosition.y
    path: 
    classID: 4
    script: {fileID: 0}
  - curve:
      serializedVersion: 2
      m_Curve:
      - serializedVersion: 2
        time: 0
        value: 0
        inSlope: 0
        outSlope: 0
        tangentMode: 34
      - serializedVersion: 2
        time: 2
        value: 0
        inSlope: 0
        outSlope: 0
        tangentMode: 34
      - serializedVersion: 2
        time: 7.016667
        value: 0
        inSlope: 0
        outSlope: 0
        tangentMode: 0
      - serializedVersion: 2
        time: 7.0333333
        value: 0
        inSlope: 0
        outSlope: 0
        tangentMode: 34
      - serializedVersion: 2
        time: 10.016666
        value: 0
        inSlope: 0
        outSlope: 0
        tangentMode: 34
      - serializedVersion: 2
        time: 15
        value: 0
        inSlope: 0
        outSlope: 0
        tangentMode: 34
      - serializedVersion: 2
        time: 16.5
        value: 0
        inSlope: 0
        outSlope: 0
        tangentMode: 34
      - serializedVersion: 2
        time: 21.483334
        value: 0
        inSlope: 0
        outSlope: 0
        tangentMode: 34
      - serializedVersion: 2
        time: 25
        value: 0
        inSlope: 0
        outSlope: 0
        tangentMode: 34
      m_PreInfinity: 2
      m_PostInfinity: 2
      m_RotationOrder: 4
    attribute: m_LocalPosition.z
    path: 
    classID: 4
    script: {fileID: 0}
  m_EulerEditorCurves: []
  m_HasGenericRootTransform: 1
  m_HasMotionFloatCurves: 0
  m_GenerateMotionCurves: 0
  m_Events: []
