%YAML 1.1
%TAG !u! tag:unity3d.com,2011:
--- !u!74 &7400000
AnimationClip:
  m_ObjectHideFlags: 0
  m_PrefabParentObject: {fileID: 0}
  m_PrefabInternal: {fileID: 0}
  m_Name: Lasarus_lights animation
  serializedVersion: 6
  m_Legacy: 0
  m_Compressed: 0
  m_UseHighQualityCurve: 1
  m_RotationCurves: []
  m_CompressedRotationCurves: []
  m_EulerCurves: []
  m_PositionCurves: []
  m_ScaleCurves: []
  m_FloatCurves:
  - curve:
      serializedVersion: 2
      m_Curve:
      - serializedVersion: 2
        time: 0
        value: 1
        inSlope: -0.71279997
        outSlope: -0.71279997
        tangentMode: 34
      - serializedVersion: 2
        time: 0.41666666
        value: 0.703
        inSlope: 0
        outSlope: 0
        tangentMode: 34
      - serializedVersion: 2
        time: 0.8333333
        value: 1
        inSlope: 0
        outSlope: 0
        tangentMode: 34
      - serializedVersion: 2
        time: 1.25
        value: 0.703
        inSlope: 0.000000029802322
        outSlope: 0.000000029802322
        tangentMode: 34
      - serializedVersion: 2
        time: 1.6666666
        value: 1
        inSlope: 0
        outSlope: 0
        tangentMode: 34
      - serializedVersion: 2
        time: 2.0833333
        value: 0.703
        inSlope: -0.00000008940697
        outSlope: -0.00000008940697
        tangentMode: 34
      - serializedVersion: 2
        time: 2.5
        value: 1
        inSlope: 0
        outSlope: 0
        tangentMode: 34
      - serializedVersion: 2
        time: 2.9166667
        value: 0.703
        inSlope: 0
        outSlope: 0
        tangentMode: 34
      - serializedVersion: 2
        time: 3.3333335
        value: 1
        inSlope: -0.00000020861626
        outSlope: -0.00000020861626
        tangentMode: 34
      - serializedVersion: 2
        time: 3.75
        value: 0.703
        inSlope: -0.0000004172325
        outSlope: -0.0000004172325
        tangentMode: 34
      - serializedVersion: 2
        time: 4.166667
        value: 1
        inSlope: 0.71279943
        outSlope: 0.71279943
        tangentMode: 34
      m_PreInfinity: 2
      m_PostInfinity: 2
      m_RotationOrder: 4
    attribute: m_Color.a
    path: Lasarus_banner_light
    classID: 212
    script: {fileID: 0}
  - curve:
      serializedVersion: 2
      m_Curve:
      - serializedVersion: 2
        time: 0
        value: 1
        inSlope: 0
        outSlope: 0
        tangentMode: 34
      - serializedVersion: 2
        time: 0.6333333
        value: 1
        inSlope: -4.5899987
        outSlope: -4.5899987
        tangentMode: 34
      - serializedVersion: 2
        time: 0.68333334
        value: 0.541
        inSlope: 0
        outSlope: 0
        tangentMode: 34
      - serializedVersion: 2
        time: 0.73333335
        value: 1
        inSlope: 0
        outSlope: 0
        tangentMode: 34
      - serializedVersion: 2
        time: 0.78333336
        value: 0.541
        inSlope: 0.000005722046
        outSlope: 0.000005722046
        tangentMode: 34
      - serializedVersion: 2
        time: 0.8333333
        value: 1
        inSlope: 4.5900044
        outSlope: 4.5900044
        tangentMode: 34
      - serializedVersion: 2
        time: 2.4333334
        value: 1
        inSlope: -4.5900044
        outSlope: -4.5900044
        tangentMode: 34
      - serializedVersion: 2
        time: 2.4833333
        value: 0.541
        inSlope: 0
        outSlope: 0
        tangentMode: 34
      - serializedVersion: 2
        time: 2.5333333
        value: 1
        inSlope: 9.180009
        outSlope: 9.180009
        tangentMode: 34
      m_PreInfinity: 2
      m_PostInfinity: 2
      m_RotationOrder: 4
    attribute: m_Color.a
    path: Lasarus_banner_text
    classID: 212
    script: {fileID: 0}
  - curve:
      serializedVersion: 2
      m_Curve:
      - serializedVersion: 2
        time: 0
        value: 1
        inSlope: -0.4365
        outSlope: -0.4365
        tangentMode: 34
      - serializedVersion: 2
        time: 0.6666667
        value: 0.709
        inSlope: 0
        outSlope: 0
        tangentMode: 34
      - serializedVersion: 2
        time: 1.3333334
        value: 1
        inSlope: -0.000000014901161
        outSlope: -0.000000014901161
        tangentMode: 34
      - serializedVersion: 2
        time: 2
        value: 0.709
        inSlope: -0.000000044703484
        outSlope: -0.000000044703484
        tangentMode: 34
      - serializedVersion: 2
        time: 2.6666667
        value: 1
        inSlope: 0.02424997
        outSlope: 0.02424997
        tangentMode: 34
      - serializedVersion: 2
        time: 3.4166667
        value: 0.709
        inSlope: 0.000000059604645
        outSlope: 0.000000059604645
        tangentMode: 34
      - serializedVersion: 2
        time: 4.1666665
        value: 1
        inSlope: 0.38800013
        outSlope: 0.38800013
        tangentMode: 34
      m_PreInfinity: 2
      m_PostInfinity: 2
      m_RotationOrder: 4
    attribute: m_Color.a
    path: Lasarus_light
    classID: 212
    script: {fileID: 0}
  m_PPtrCurves: []
  m_SampleRate: 60
  m_WrapMode: 0
  m_Bounds:
    m_Center: {x: 0, y: 0, z: 0}
    m_Extent: {x: 0, y: 0, z: 0}
  m_ClipBindingConstant:
    genericBindings:
    - serializedVersion: 2
      path: 3935429755
      attribute: 304273561
      script: {fileID: 0}
      typeID: 212
      customType: 0
      isPPtrCurve: 0
    - serializedVersion: 2
      path: 237364755
      attribute: 304273561
      script: {fileID: 0}
      typeID: 212
      customType: 0
      isPPtrCurve: 0
    - serializedVersion: 2
      path: 1976875728
      attribute: 304273561
      script: {fileID: 0}
      typeID: 212
      customType: 0
      isPPtrCurve: 0
    pptrCurveMapping: []
  m_AnimationClipSettings:
    serializedVersion: 2
    m_AdditiveReferencePoseClip: {fileID: 0}
    m_AdditiveReferencePoseTime: 0
    m_StartTime: 0
    m_StopTime: 4.166667
    m_OrientationOffsetY: 0
    m_Level: 0
    m_CycleOffset: 0
    m_HasAdditiveReferencePose: 0
    m_LoopTime: 1
    m_LoopBlend: 0
    m_LoopBlendOrientation: 0
    m_LoopBlendPositionY: 0
    m_LoopBlendPositionXZ: 0
    m_KeepOriginalOrientation: 0
    m_KeepOriginalPositionY: 1
    m_KeepOriginalPositionXZ: 0
    m_HeightFromFeet: 0
    m_Mirror: 0
  m_EditorCurves:
  - curve:
      serializedVersion: 2
      m_Curve:
      - serializedVersion: 2
        time: 0
        value: 1
        inSlope: -0.71279997
        outSlope: -0.71279997
        tangentMode: 34
      - serializedVersion: 2
        time: 0.41666666
        value: 0.703
        inSlope: 0
        outSlope: 0
        tangentMode: 34
      - serializedVersion: 2
        time: 0.8333333
        value: 1
        inSlope: 0
        outSlope: 0
        tangentMode: 34
      - serializedVersion: 2
        time: 1.25
        value: 0.703
        inSlope: 0.000000029802322
        outSlope: 0.000000029802322
        tangentMode: 34
      - serializedVersion: 2
        time: 1.6666666
        value: 1
        inSlope: 0
        outSlope: 0
        tangentMode: 34
      - serializedVersion: 2
        time: 2.0833333
        value: 0.703
        inSlope: -0.00000008940697
        outSlope: -0.00000008940697
        tangentMode: 34
      - serializedVersion: 2
        time: 2.5
        value: 1
        inSlope: 0
        outSlope: 0
        tangentMode: 34
      - serializedVersion: 2
        time: 2.9166667
        value: 0.703
        inSlope: 0
        outSlope: 0
        tangentMode: 34
      - serializedVersion: 2
        time: 3.3333335
        value: 1
        inSlope: -0.00000020861626
        outSlope: -0.00000020861626
        tangentMode: 34
      - serializedVersion: 2
        time: 3.75
        value: 0.703
        inSlope: -0.0000004172325
        outSlope: -0.0000004172325
        tangentMode: 34
      - serializedVersion: 2
        time: 4.166667
        value: 1
        inSlope: 0.71279943
        outSlope: 0.71279943
        tangentMode: 34
      m_PreInfinity: 2
      m_PostInfinity: 2
      m_RotationOrder: 4
    attribute: m_Color.a
    path: Lasarus_banner_light
    classID: 212
    script: {fileID: 0}
  - curve:
      serializedVersion: 2
      m_Curve:
      - serializedVersion: 2
        time: 0
        value: 1
        inSlope: 0
        outSlope: 0
        tangentMode: 34
      - serializedVersion: 2
        time: 0.6333333
        value: 1
        inSlope: -4.5899987
        outSlope: -4.5899987
        tangentMode: 34
      - serializedVersion: 2
        time: 0.68333334
        value: 0.541
        inSlope: 0
        outSlope: 0
        tangentMode: 34
      - serializedVersion: 2
        time: 0.73333335
        value: 1
        inSlope: 0
        outSlope: 0
        tangentMode: 34
      - serializedVersion: 2
        time: 0.78333336
        value: 0.541
        inSlope: 0.000005722046
        outSlope: 0.000005722046
        tangentMode: 34
      - serializedVersion: 2
        time: 0.8333333
        value: 1
        inSlope: 4.5900044
        outSlope: 4.5900044
        tangentMode: 34
      - serializedVersion: 2
        time: 2.4333334
        value: 1
        inSlope: -4.5900044
        outSlope: -4.5900044
        tangentMode: 34
      - serializedVersion: 2
        time: 2.4833333
        value: 0.541
        inSlope: 0
        outSlope: 0
        tangentMode: 34
      - serializedVersion: 2
        time: 2.5333333
        value: 1
        inSlope: 9.180009
        outSlope: 9.180009
        tangentMode: 34
      m_PreInfinity: 2
      m_PostInfinity: 2
      m_RotationOrder: 4
    attribute: m_Color.a
    path: Lasarus_banner_text
    classID: 212
    script: {fileID: 0}
  - curve:
      serializedVersion: 2
      m_Curve:
      - serializedVersion: 2
        time: 0
        value: 1
        inSlope: -0.4365
        outSlope: -0.4365
        tangentMode: 34
      - serializedVersion: 2
        time: 0.6666667
        value: 0.709
        inSlope: 0
        outSlope: 0
        tangentMode: 34
      - serializedVersion: 2
        time: 1.3333334
        value: 1
        inSlope: -0.000000014901161
        outSlope: -0.000000014901161
        tangentMode: 34
      - serializedVersion: 2
        time: 2
        value: 0.709
        inSlope: -0.000000044703484
        outSlope: -0.000000044703484
        tangentMode: 34
      - serializedVersion: 2
        time: 2.6666667
        value: 1
        inSlope: 0.02424997
        outSlope: 0.02424997
        tangentMode: 34
      - serializedVersion: 2
        time: 3.4166667
        value: 0.709
        inSlope: 0.000000059604645
        outSlope: 0.000000059604645
        tangentMode: 34
      - serializedVersion: 2
        time: 4.1666665
        value: 1
        inSlope: 0.38800013
        outSlope: 0.38800013
        tangentMode: 34
      m_PreInfinity: 2
      m_PostInfinity: 2
      m_RotationOrder: 4
    attribute: m_Color.a
    path: Lasarus_light
    classID: 212
    script: {fileID: 0}
  m_EulerEditorCurves: []
  m_HasGenericRootTransform: 0
  m_HasMotionFloatCurves: 0
  m_GenerateMotionCurves: 0
  m_Events: []
