__Page_Desc;;
__Line_NpcName;_Eng;Cop
;;
__Page_Welcome;;
__Line_NpcAnswer;_Eng;City Hall is closed, move along.;_Npc;Cop;
__Line_How;_Eng;How can I get in?
__Line_Homeless;_Eng;Officer, ive seen 2 cops been beaten down by some homeless guys up to the street!
__Line_Leave;_Eng;<Leave>
__Line_Engage;_Eng;<Show this Cop who is a real boss here>
;;
__Page_How;;
__Line_NpcAnswer;_Eng;You cant. But if you wont stop fucking around I can throw you in a jail, and there will be some guys, wiling to get inside of you. Now move along!;_Npc;Cop;
__Line_Leave;_Eng;<Leave>
__Line_Engage;_Eng;<Show this Cop who is a real boss here>
;;
__Page_Homeless;;
__Line_Requirements;_Req;_homelessGuySaved;_Req;_copsLeftCityHall;
__Line_NpcAnswer;_Eng;You 3, come with me. And you 2 make sure no body gets inside!;_Npc;Cop;
__Line_Effect;_LunchEvent;cityHallCopsLeaveForHomeless
__Line_Leave;_Eng;<Leave>
;;
__Page_Leave;;
__Line_Effect;_Exit;
;;
__Page_Engage;;
__Line_Effect;_Engage;1
__Line_Effect;_Exit;