__Page_Desc;;
__Line_NpcName;_Eng;Cop
;;
__Page_Welcome;;
__Line_NpcAnswer;_Eng;Hey wierdo! Show me your ID.;_Npc;Cop;
__Line_Peacefull;_Eng;<Show your ID>
__Line_Engage;_Eng;<Attack Cop>
;;
__Page_Peacefull;;
__Line_NpcAnswer;_Eng;Looks fine to me, you can go.;_Npc;Cop;
__Line_Leave;_Eng;Leave
;;
__Page_Leave;;
__Line_Effect;_MakeArenaSafe;0
__Line_Effect;_Exit;
;;
__Page_Engage;;
__Line_Effect;_Engage;0
__Line_Effect;_Exit;