__Page_Desc;;
__Line_NpcName;_Eng;Фанатик
;;
__Page_Welcome;;
__Line_NpcAnswer;_Eng;Зейн, у нас тут гость. Кажется, я слышал, что наши ищут нового стриптизера в зал жертвоприношений. Может, это он?;_Npc;F1;
__Line_a1;_Eng;Да, я немного танцую. 
__Line_b1;_Eng;Боюсь, мои импланты мало, кому понравятся.
__Line_c1;_Eng;Держи.<Дать пропуск>
__Line_d1;_Eng;Держи.<Дать настоящий пропуск>
;;
;;
;;
__Page_a1;;
__Line_NpcAnswer;_Eng;Может, покажешь?;_Npc;F2;
__Line_a2;_Eng;А может быть, мы сначала пройдем в клуб? 
;;
__Page_a2;;
__Line_NpcAnswer;_Eng;Ну нет, умник. Тебе чего здесь надо?!;_Npc;F2; 
__Line_a3;_Eng;<Продолжить>
;;
__Page_a3;;
__Line_NpcAnswer;_Eng;Зейн, мне позвать парней?;_Npc;F1;
__Line_a4;_Eng;<Продолжить>
;;
__Page_a4;;
__Line_NpcAnswer;_Eng;Сами разберемся.;_Npc;F2;
__Line_Exit;_Eng;<Бой>
;;
;;
;;
__Page_b1;;
__Line_NpcAnswer;_Eng;Ты плохо знаешь местную публику.;_Npc;F2;
__Line_b2;_Eng;Я ищу место, которое называют «Крит». Это ведь здесь? 
;;
__Page_b2;;
__Line_NpcAnswer;_Eng;Допустим. Как ты собираешься пройти?;_Npc;F2; 
__Line_b3;_Eng;Я ударю тебя в лицо, затем ударю твою подружку в лицо. Повторю эту операцию несколько раз и пойду дальше.
;;
__Page_b3;;
__Line_NpcAnswer;_Eng;Бог лосей ждет тебя!;_Npc;F1;
__Line_Exit;_Eng;<Бой>
;;
;;
;;
__Page_c1;;
__Line_Requirements;_Req;_PassBought;
__Line_NpcAnswer;_Eng;Глянь, Гузи. Что это за хрень?;_Npc;F2; 
__Line_c2;_Eng;<Продолжить>
;;
__Page_c2;;
__Line_NpcAnswer;_Eng;Я не знаю, мы уже месяца два такие не используем.;_Npc;F1;
__Line_c3;_Eng;Хочешь сказать, что это гавнюк в соломенной шляпе у моста меня кинул?
;;
__Page_c3;;
__Line_NpcAnswer;_Eng;…Да. Сегодня твой день очищения. Он наступил, возрадуйся и помолись Богу лосей. Вы трое, пойдите посморите на гавнюка в шляпе.;_Npc;F2;
__Line_Effect;_LunchEvent;sendCopsToInf;
__Line_c4;_Eng;Да, вломите ему как следует, от меня тоже! Слушай, у меня тут завалялись немного денег и имплантик.
;;
__Page_c4;;
__Line_NpcAnswer;_Eng;Сегодня все эти твои штучки станут тебе не нужны. Да. Забудь про них... Бог лосей встретит тебя на Черной поляне. Просто иди к нему.;_Npc;F1;
__Line_Exit;_Eng;Ну если ты настаиваешь.<Бой>
;;
;;
;;
__Page_d1;;
__Line_Requirements;_Req;_RealPassBought;
__Line_NpcAnswer;_Eng;Сэр, я очень извеняюсь, проходите пожалуйста, не представляю как я могу обознаться.;_Npc;F1;
__Line_ExitVictory;_Eng;<Войти в клуб>
;;
;;
__Page_Exit;;
__Line_Effect;_Engage;-1
__Line_Effect;_Exit;
;;
__Page_ExitVictory;;
__Line_Effect;_LunchEvent;victory
__Line_Effect;_Exit;
