%YAML 1.1
%TAG !u! tag:unity3d.com,2011:
--- !u!78 &1
TagManager:
  serializedVersion: 2
  tags:
  - PlayerHitBox
  - PlayerAttackBox
  - EnemyHitBox
  - EnemyAttackBox
  - Cop
  - Cop Punch
  - PickUp
  layers:
  - Default
  - TransparentFX
  - Ignore Raycast
  - 
  - Water
  - UI
  - 
  - 
  - PlayerAttackBox
  - PlayerHitBox
  - EnemyAttackBox
  - EnemyHitBox
  - DeadBody
  - LevelGeometry
  - KnockdownBody
  - PickUp
  - ActionAbleSearcher
  - ActioAble
  - 
  - 
  - 
  - 
  - 
  - 
  - 
  - 
  - 
  - 
  - 
  - 
  - 
  - 
  m_SortingLayers:
  - name: Default
    uniqueID: 0
    locked: 0
