%YAML 1.1
%TAG !u! tag:unity3d.com,2011:
--- !u!74 &7400000
AnimationClip:
  m_ObjectHideFlags: 0
  m_PrefabParentObject: {fileID: 0}
  m_PrefabInternal: {fileID: 0}
  m_Name: Cop attack 1 animation
  serializedVersion: 6
  m_Legacy: 0
  m_Compressed: 0
  m_UseHighQualityCurve: 1
  m_RotationCurves: []
  m_CompressedRotationCurves: []
  m_EulerCurves: []
  m_PositionCurves:
  - curve:
      serializedVersion: 2
      m_Curve:
      - serializedVersion: 2
        time: 0
        value: {x: 0.036, y: 0.342, z: 0}
        inSlope: {x: 12.348001, y: 2.724, z: 0}
        outSlope: {x: 12.348001, y: 2.724, z: 0}
        tangentMode: 0
      - serializedVersion: 2
        time: 0.083333336
        value: {x: 1.065, y: 0.569, z: 0}
        inSlope: {x: -0.17400026, y: -0.4920001, z: 0}
        outSlope: {x: -0.17400026, y: -0.4920001, z: 0}
        tangentMode: 0
      - serializedVersion: 2
        time: 0.16666667
        value: {x: 0.007, y: 0.26, z: 0}
        inSlope: {x: -12.696001, y: -3.7080002, z: 0}
        outSlope: {x: -12.696001, y: -3.7080002, z: 0}
        tangentMode: 0
      m_PreInfinity: 2
      m_PostInfinity: 2
      m_RotationOrder: 4
    path: Punch
  - curve:
      serializedVersion: 2
      m_Curve:
      - serializedVersion: 2
        time: 0
        value: {x: -0.419, y: -1.72, z: 0}
        inSlope: {x: 0, y: 0, z: 0}
        outSlope: {x: 0, y: 0, z: 0}
        tangentMode: 0
      m_PreInfinity: 2
      m_PostInfinity: 2
      m_RotationOrder: 4
    path: ShadowedObjects1
  - curve:
      serializedVersion: 2
      m_Curve:
      - serializedVersion: 2
        time: 0
        value: {x: 0.341, y: -1.721, z: 0}
        inSlope: {x: 0, y: 0, z: 0}
        outSlope: {x: 0, y: 0, z: 0}
        tangentMode: 0
      m_PreInfinity: 2
      m_PostInfinity: 2
      m_RotationOrder: 4
    path: ShadowedObjects2
  m_ScaleCurves:
  - curve:
      serializedVersion: 2
      m_Curve:
      - serializedVersion: 2
        time: 0
        value: {x: 3.16, y: 4, z: 4}
        inSlope: {x: 0, y: 0, z: 0}
        outSlope: {x: 0, y: 0, z: 0}
        tangentMode: 0
      m_PreInfinity: 2
      m_PostInfinity: 2
      m_RotationOrder: 4
    path: ShadowedObjects2
  - curve:
      serializedVersion: 2
      m_Curve:
      - serializedVersion: 2
        time: 0
        value: {x: 3.22, y: 4, z: 4}
        inSlope: {x: 0, y: 0, z: 0}
        outSlope: {x: 0, y: 0, z: 0}
        tangentMode: 0
      m_PreInfinity: 2
      m_PostInfinity: 2
      m_RotationOrder: 4
    path: ShadowedObjects1
  m_FloatCurves:
  - curve:
      serializedVersion: 2
      m_Curve:
      - serializedVersion: 2
        time: 0
        value: 0.19452238
        inSlope: 0.2917843
        outSlope: 0.2917843
        tangentMode: 34
      - serializedVersion: 2
        time: 0.083333336
        value: 0.21883774
        inSlope: -0.0000014305115
        outSlope: -0.0000014305115
        tangentMode: 34
      - serializedVersion: 2
        time: 0.16666667
        value: 0.19452214
        inSlope: -1.1671358
        outSlope: -1.1671358
        tangentMode: 34
      - serializedVersion: 2
        time: 0.25
        value: 0.024315119
        inSlope: -2.0424845
        outSlope: -2.0424845
        tangentMode: 34
      m_PreInfinity: 2
      m_PostInfinity: 2
      m_RotationOrder: 4
    attribute: m_Offset.x
    path: 
    classID: 61
    script: {fileID: 0}
  - curve:
      serializedVersion: 2
      m_Curve:
      - serializedVersion: 2
        time: 0
        value: 0.8090451
        inSlope: 0.58356714
        outSlope: 0.58356714
        tangentMode: 34
      - serializedVersion: 2
        time: 0.083333336
        value: 0.8576757
        inSlope: 0.00000071525574
        outSlope: 0.00000071525574
        tangentMode: 34
      - serializedVersion: 2
        time: 0.16666667
        value: 0.8090452
        inSlope: -2.334268
        outSlope: -2.334268
        tangentMode: 34
      - serializedVersion: 2
        time: 0.25
        value: 0.468631
        inSlope: -4.0849705
        outSlope: -4.0849705
        tangentMode: 34
      m_PreInfinity: 2
      m_PostInfinity: 2
      m_RotationOrder: 4
    attribute: m_Size.x
    path: 
    classID: 61
    script: {fileID: 0}
  - curve:
      serializedVersion: 2
      m_Curve:
      - serializedVersion: 2
        time: 0
        value: 0.03463757
        inSlope: -0.6419263
        outSlope: -0.6419263
        tangentMode: 34
      - serializedVersion: 2
        time: 0.083333336
        value: -0.018856287
        inSlope: -0.233428
        outSlope: -0.233428
        tangentMode: 34
      - serializedVersion: 2
        time: 0.16666667
        value: -0.0042670965
        inSlope: 0.4522641
        outSlope: 0.4522641
        tangentMode: 34
      - serializedVersion: 2
        time: 0.25
        value: 0.056521058
        inSlope: 0.7294579
        outSlope: 0.7294579
        tangentMode: 34
      m_PreInfinity: 2
      m_PostInfinity: 2
      m_RotationOrder: 4
    attribute: m_Offset.y
    path: 
    classID: 61
    script: {fileID: 0}
  - curve:
      serializedVersion: 2
      m_Curve:
      - serializedVersion: 2
        time: 0
        value: 2.119275
        inSlope: -1.2838526
        outSlope: -1.2838526
        tangentMode: 34
      - serializedVersion: 2
        time: 0.083333336
        value: 2.0122874
        inSlope: -0.466856
        outSlope: -0.466856
        tangentMode: 34
      - serializedVersion: 2
        time: 0.16666667
        value: 2.0414658
        inSlope: 0.9045282
        outSlope: 0.9045282
        tangentMode: 34
      - serializedVersion: 2
        time: 0.25
        value: 2.163042
        inSlope: 1.4589158
        outSlope: 1.4589158
        tangentMode: 34
      m_PreInfinity: 2
      m_PostInfinity: 2
      m_RotationOrder: 4
    attribute: m_Size.y
    path: 
    classID: 61
    script: {fileID: 0}
  - curve:
      serializedVersion: 2
      m_Curve:
      - serializedVersion: 2
        time: 0
        value: 0
        inSlope: Infinity
        outSlope: Infinity
        tangentMode: 103
      - serializedVersion: 2
        time: 0.083333336
        value: 1
        inSlope: Infinity
        outSlope: Infinity
        tangentMode: 103
      - serializedVersion: 2
        time: 0.16666667
        value: 0
        inSlope: Infinity
        outSlope: Infinity
        tangentMode: 103
      m_PreInfinity: 2
      m_PostInfinity: 2
      m_RotationOrder: 4
    attribute: m_IsActive
    path: Punch
    classID: 1
    script: {fileID: 0}
  - curve:
      serializedVersion: 2
      m_Curve:
      - serializedVersion: 2
        time: 0
        value: 1
        inSlope: Infinity
        outSlope: Infinity
        tangentMode: 103
      m_PreInfinity: 2
      m_PostInfinity: 2
      m_RotationOrder: 4
    attribute: m_IsKinematic
    path: 
    classID: 50
    script: {fileID: 0}
  m_PPtrCurves:
  - curve:
    - time: 0
      value: {fileID: 21300000, guid: cdbafc8a40db9b241a3f96e51a30301e, type: 3}
    - time: 0.083333336
      value: {fileID: 21300002, guid: cdbafc8a40db9b241a3f96e51a30301e, type: 3}
    - time: 0.16666667
      value: {fileID: 21300004, guid: cdbafc8a40db9b241a3f96e51a30301e, type: 3}
    - time: 0.25
      value: {fileID: 21300006, guid: cdbafc8a40db9b241a3f96e51a30301e, type: 3}
    attribute: m_Sprite
    path: 
    classID: 212
    script: {fileID: 0}
  m_SampleRate: 12
  m_WrapMode: 0
  m_Bounds:
    m_Center: {x: 0, y: 0, z: 0}
    m_Extent: {x: 0, y: 0, z: 0}
  m_ClipBindingConstant:
    genericBindings:
    - serializedVersion: 2
      path: 3978321756
      attribute: 1
      script: {fileID: 0}
      typeID: 4
      customType: 0
      isPPtrCurve: 0
    - serializedVersion: 2
      path: 0
      attribute: 413499720
      script: {fileID: 0}
      typeID: 61
      customType: 0
      isPPtrCurve: 0
    - serializedVersion: 2
      path: 0
      attribute: 4197328169
      script: {fileID: 0}
      typeID: 61
      customType: 0
      isPPtrCurve: 0
    - serializedVersion: 2
      path: 0
      attribute: 1872933342
      script: {fileID: 0}
      typeID: 61
      customType: 0
      isPPtrCurve: 0
    - serializedVersion: 2
      path: 0
      attribute: 2368279999
      script: {fileID: 0}
      typeID: 61
      customType: 0
      isPPtrCurve: 0
    - serializedVersion: 2
      path: 3978321756
      attribute: 2086281974
      script: {fileID: 0}
      typeID: 1
      customType: 0
      isPPtrCurve: 0
    - serializedVersion: 2
      path: 0
      attribute: 2041097263
      script: {fileID: 0}
      typeID: 50
      customType: 0
      isPPtrCurve: 0
    - serializedVersion: 2
      path: 0
      attribute: 0
      script: {fileID: 0}
      typeID: 212
      customType: 23
      isPPtrCurve: 1
    - serializedVersion: 2
      path: 3742703687
      attribute: 1
      script: {fileID: 0}
      typeID: 4
      customType: 0
      isPPtrCurve: 0
    - serializedVersion: 2
      path: 1176269309
      attribute: 1
      script: {fileID: 0}
      typeID: 4
      customType: 0
      isPPtrCurve: 0
    - serializedVersion: 2
      path: 1176269309
      attribute: 3
      script: {fileID: 0}
      typeID: 4
      customType: 0
      isPPtrCurve: 0
    - serializedVersion: 2
      path: 3742703687
      attribute: 3
      script: {fileID: 0}
      typeID: 4
      customType: 0
      isPPtrCurve: 0
    pptrCurveMapping:
    - {fileID: 21300000, guid: cdbafc8a40db9b241a3f96e51a30301e, type: 3}
    - {fileID: 21300002, guid: cdbafc8a40db9b241a3f96e51a30301e, type: 3}
    - {fileID: 21300004, guid: cdbafc8a40db9b241a3f96e51a30301e, type: 3}
    - {fileID: 21300006, guid: cdbafc8a40db9b241a3f96e51a30301e, type: 3}
  m_AnimationClipSettings:
    serializedVersion: 2
    m_AdditiveReferencePoseClip: {fileID: 0}
    m_AdditiveReferencePoseTime: 0
    m_StartTime: 0
    m_StopTime: 0.33333334
    m_OrientationOffsetY: 0
    m_Level: 0
    m_CycleOffset: 0
    m_HasAdditiveReferencePose: 0
    m_LoopTime: 1
    m_LoopBlend: 0
    m_LoopBlendOrientation: 0
    m_LoopBlendPositionY: 0
    m_LoopBlendPositionXZ: 0
    m_KeepOriginalOrientation: 0
    m_KeepOriginalPositionY: 1
    m_KeepOriginalPositionXZ: 0
    m_HeightFromFeet: 0
    m_Mirror: 0
  m_EditorCurves:
  - curve:
      serializedVersion: 2
      m_Curve:
      - serializedVersion: 2
        time: 0
        value: 0.19452238
        inSlope: 0.2917843
        outSlope: 0.2917843
        tangentMode: 34
      - serializedVersion: 2
        time: 0.083333336
        value: 0.21883774
        inSlope: -0.0000014305115
        outSlope: -0.0000014305115
        tangentMode: 34
      - serializedVersion: 2
        time: 0.16666667
        value: 0.19452214
        inSlope: -1.1671358
        outSlope: -1.1671358
        tangentMode: 34
      - serializedVersion: 2
        time: 0.25
        value: 0.024315119
        inSlope: -2.0424845
        outSlope: -2.0424845
        tangentMode: 34
      m_PreInfinity: 2
      m_PostInfinity: 2
      m_RotationOrder: 4
    attribute: m_Offset.x
    path: 
    classID: 61
    script: {fileID: 0}
  - curve:
      serializedVersion: 2
      m_Curve:
      - serializedVersion: 2
        time: 0
        value: 0.8090451
        inSlope: 0.58356714
        outSlope: 0.58356714
        tangentMode: 34
      - serializedVersion: 2
        time: 0.083333336
        value: 0.8576757
        inSlope: 0.00000071525574
        outSlope: 0.00000071525574
        tangentMode: 34
      - serializedVersion: 2
        time: 0.16666667
        value: 0.8090452
        inSlope: -2.334268
        outSlope: -2.334268
        tangentMode: 34
      - serializedVersion: 2
        time: 0.25
        value: 0.468631
        inSlope: -4.0849705
        outSlope: -4.0849705
        tangentMode: 34
      m_PreInfinity: 2
      m_PostInfinity: 2
      m_RotationOrder: 4
    attribute: m_Size.x
    path: 
    classID: 61
    script: {fileID: 0}
  - curve:
      serializedVersion: 2
      m_Curve:
      - serializedVersion: 2
        time: 0
        value: 0.03463757
        inSlope: -0.6419263
        outSlope: -0.6419263
        tangentMode: 34
      - serializedVersion: 2
        time: 0.083333336
        value: -0.018856287
        inSlope: -0.233428
        outSlope: -0.233428
        tangentMode: 34
      - serializedVersion: 2
        time: 0.16666667
        value: -0.0042670965
        inSlope: 0.4522641
        outSlope: 0.4522641
        tangentMode: 34
      - serializedVersion: 2
        time: 0.25
        value: 0.056521058
        inSlope: 0.7294579
        outSlope: 0.7294579
        tangentMode: 34
      m_PreInfinity: 2
      m_PostInfinity: 2
      m_RotationOrder: 4
    attribute: m_Offset.y
    path: 
    classID: 61
    script: {fileID: 0}
  - curve:
      serializedVersion: 2
      m_Curve:
      - serializedVersion: 2
        time: 0
        value: 2.119275
        inSlope: -1.2838526
        outSlope: -1.2838526
        tangentMode: 34
      - serializedVersion: 2
        time: 0.083333336
        value: 2.0122874
        inSlope: -0.466856
        outSlope: -0.466856
        tangentMode: 34
      - serializedVersion: 2
        time: 0.16666667
        value: 2.0414658
        inSlope: 0.9045282
        outSlope: 0.9045282
        tangentMode: 34
      - serializedVersion: 2
        time: 0.25
        value: 2.163042
        inSlope: 1.4589158
        outSlope: 1.4589158
        tangentMode: 34
      m_PreInfinity: 2
      m_PostInfinity: 2
      m_RotationOrder: 4
    attribute: m_Size.y
    path: 
    classID: 61
    script: {fileID: 0}
  - curve:
      serializedVersion: 2
      m_Curve:
      - serializedVersion: 2
        time: 0
        value: 0.036
        inSlope: 12.348001
        outSlope: 12.348001
        tangentMode: 34
      - serializedVersion: 2
        time: 0.083333336
        value: 1.065
        inSlope: -0.17400026
        outSlope: -0.17400026
        tangentMode: 34
      - serializedVersion: 2
        time: 0.16666667
        value: 0.007
        inSlope: -12.696001
        outSlope: -12.696001
        tangentMode: 34
      m_PreInfinity: 2
      m_PostInfinity: 2
      m_RotationOrder: 4
    attribute: m_LocalPosition.x
    path: Punch
    classID: 4
    script: {fileID: 0}
  - curve:
      serializedVersion: 2
      m_Curve:
      - serializedVersion: 2
        time: 0
        value: 0.342
        inSlope: 2.724
        outSlope: 2.724
        tangentMode: 34
      - serializedVersion: 2
        time: 0.083333336
        value: 0.569
        inSlope: -0.4920001
        outSlope: -0.4920001
        tangentMode: 34
      - serializedVersion: 2
        time: 0.16666667
        value: 0.26
        inSlope: -3.7080002
        outSlope: -3.7080002
        tangentMode: 34
      m_PreInfinity: 2
      m_PostInfinity: 2
      m_RotationOrder: 4
    attribute: m_LocalPosition.y
    path: Punch
    classID: 4
    script: {fileID: 0}
  - curve:
      serializedVersion: 2
      m_Curve:
      - serializedVersion: 2
        time: 0
        value: 0
        inSlope: 0
        outSlope: 0
        tangentMode: 34
      - serializedVersion: 2
        time: 0.083333336
        value: 0
        inSlope: 0
        outSlope: 0
        tangentMode: 34
      - serializedVersion: 2
        time: 0.16666667
        value: 0
        inSlope: 0
        outSlope: 0
        tangentMode: 34
      m_PreInfinity: 2
      m_PostInfinity: 2
      m_RotationOrder: 4
    attribute: m_LocalPosition.z
    path: Punch
    classID: 4
    script: {fileID: 0}
  - curve:
      serializedVersion: 2
      m_Curve:
      - serializedVersion: 2
        time: 0
        value: 0
        inSlope: Infinity
        outSlope: Infinity
        tangentMode: 103
      - serializedVersion: 2
        time: 0.083333336
        value: 1
        inSlope: Infinity
        outSlope: Infinity
        tangentMode: 103
      - serializedVersion: 2
        time: 0.16666667
        value: 0
        inSlope: Infinity
        outSlope: Infinity
        tangentMode: 103
      m_PreInfinity: 2
      m_PostInfinity: 2
      m_RotationOrder: 4
    attribute: m_IsActive
    path: Punch
    classID: 1
    script: {fileID: 0}
  - curve:
      serializedVersion: 2
      m_Curve:
      - serializedVersion: 2
        time: 0
        value: 1
        inSlope: Infinity
        outSlope: Infinity
        tangentMode: 103
      m_PreInfinity: 2
      m_PostInfinity: 2
      m_RotationOrder: 4
    attribute: m_IsKinematic
    path: 
    classID: 50
    script: {fileID: 0}
  - curve:
      serializedVersion: 2
      m_Curve:
      - serializedVersion: 2
        time: 0
        value: -0.419
        inSlope: 0
        outSlope: 0
        tangentMode: 136
      m_PreInfinity: 2
      m_PostInfinity: 2
      m_RotationOrder: 4
    attribute: m_LocalPosition.x
    path: ShadowedObjects1
    classID: 4
    script: {fileID: 0}
  - curve:
      serializedVersion: 2
      m_Curve:
      - serializedVersion: 2
        time: 0
        value: -1.72
        inSlope: 0
        outSlope: 0
        tangentMode: 136
      m_PreInfinity: 2
      m_PostInfinity: 2
      m_RotationOrder: 4
    attribute: m_LocalPosition.y
    path: ShadowedObjects1
    classID: 4
    script: {fileID: 0}
  - curve:
      serializedVersion: 2
      m_Curve:
      - serializedVersion: 2
        time: 0
        value: 0
        inSlope: 0
        outSlope: 0
        tangentMode: 136
      m_PreInfinity: 2
      m_PostInfinity: 2
      m_RotationOrder: 4
    attribute: m_LocalPosition.z
    path: ShadowedObjects1
    classID: 4
    script: {fileID: 0}
  - curve:
      serializedVersion: 2
      m_Curve:
      - serializedVersion: 2
        time: 0
        value: 0.341
        inSlope: 0
        outSlope: 0
        tangentMode: 136
      m_PreInfinity: 2
      m_PostInfinity: 2
      m_RotationOrder: 4
    attribute: m_LocalPosition.x
    path: ShadowedObjects2
    classID: 4
    script: {fileID: 0}
  - curve:
      serializedVersion: 2
      m_Curve:
      - serializedVersion: 2
        time: 0
        value: -1.721
        inSlope: 0
        outSlope: 0
        tangentMode: 136
      m_PreInfinity: 2
      m_PostInfinity: 2
      m_RotationOrder: 4
    attribute: m_LocalPosition.y
    path: ShadowedObjects2
    classID: 4
    script: {fileID: 0}
  - curve:
      serializedVersion: 2
      m_Curve:
      - serializedVersion: 2
        time: 0
        value: 0
        inSlope: 0
        outSlope: 0
        tangentMode: 136
      m_PreInfinity: 2
      m_PostInfinity: 2
      m_RotationOrder: 4
    attribute: m_LocalPosition.z
    path: ShadowedObjects2
    classID: 4
    script: {fileID: 0}
  - curve:
      serializedVersion: 2
      m_Curve:
      - serializedVersion: 2
        time: 0
        value: 3.16
        inSlope: 0
        outSlope: 0
        tangentMode: 136
      m_PreInfinity: 2
      m_PostInfinity: 2
      m_RotationOrder: 4
    attribute: m_LocalScale.x
    path: ShadowedObjects2
    classID: 4
    script: {fileID: 0}
  - curve:
      serializedVersion: 2
      m_Curve:
      - serializedVersion: 2
        time: 0
        value: 4
        inSlope: 0
        outSlope: 0
        tangentMode: 136
      m_PreInfinity: 2
      m_PostInfinity: 2
      m_RotationOrder: 4
    attribute: m_LocalScale.y
    path: ShadowedObjects2
    classID: 4
    script: {fileID: 0}
  - curve:
      serializedVersion: 2
      m_Curve:
      - serializedVersion: 2
        time: 0
        value: 4
        inSlope: 0
        outSlope: 0
        tangentMode: 136
      m_PreInfinity: 2
      m_PostInfinity: 2
      m_RotationOrder: 4
    attribute: m_LocalScale.z
    path: ShadowedObjects2
    classID: 4
    script: {fileID: 0}
  - curve:
      serializedVersion: 2
      m_Curve:
      - serializedVersion: 2
        time: 0
        value: 3.22
        inSlope: 0
        outSlope: 0
        tangentMode: 136
      m_PreInfinity: 2
      m_PostInfinity: 2
      m_RotationOrder: 4
    attribute: m_LocalScale.x
    path: ShadowedObjects1
    classID: 4
    script: {fileID: 0}
  - curve:
      serializedVersion: 2
      m_Curve:
      - serializedVersion: 2
        time: 0
        value: 4
        inSlope: 0
        outSlope: 0
        tangentMode: 136
      m_PreInfinity: 2
      m_PostInfinity: 2
      m_RotationOrder: 4
    attribute: m_LocalScale.y
    path: ShadowedObjects1
    classID: 4
    script: {fileID: 0}
  - curve:
      serializedVersion: 2
      m_Curve:
      - serializedVersion: 2
        time: 0
        value: 4
        inSlope: 0
        outSlope: 0
        tangentMode: 136
      m_PreInfinity: 2
      m_PostInfinity: 2
      m_RotationOrder: 4
    attribute: m_LocalScale.z
    path: ShadowedObjects1
    classID: 4
    script: {fileID: 0}
  m_EulerEditorCurves: []
  m_HasGenericRootTransform: 0
  m_HasMotionFloatCurves: 0
  m_GenerateMotionCurves: 0
  m_Events:
  - time: 0.25
    functionName: attackComplete
    data: 
    objectReferenceParameter: {fileID: 0}
    floatParameter: 0
    intParameter: 0
    messageOptions: 0
