%YAML 1.1
%TAG !u! tag:unity3d.com,2011:
--- !u!74 &7400000
AnimationClip:
  m_ObjectHideFlags: 0
  m_PrefabParentObject: {fileID: 0}
  m_PrefabInternal: {fileID: 0}
  m_Name: Bus1 animator
  serializedVersion: 6
  m_Legacy: 0
  m_Compressed: 0
  m_UseHighQualityCurve: 1
  m_RotationCurves: []
  m_CompressedRotationCurves: []
  m_EulerCurves: []
  m_PositionCurves:
  - curve:
      serializedVersion: 2
      m_Curve:
      - serializedVersion: 2
        time: 0
        value: {x: -9.93, y: 0.65, z: -0.06640625}
        inSlope: {x: 0, y: -0.12749998, z: 0}
        outSlope: {x: 0, y: -0.12749998, z: 0}
        tangentMode: 0
      - serializedVersion: 2
        time: 1.3333334
        value: {x: -9.93, y: 0.48, z: -0.06640625}
        inSlope: {x: 0, y: 0, z: 0}
        outSlope: {x: 0, y: 0, z: 0}
        tangentMode: 0
      - serializedVersion: 2
        time: 2.6666667
        value: {x: -9.93, y: 0.65, z: -0.06640625}
        inSlope: {x: 0, y: 0.12749998, z: 0}
        outSlope: {x: 0, y: 0.12749998, z: 0}
        tangentMode: 0
      m_PreInfinity: 2
      m_PostInfinity: 2
      m_RotationOrder: 4
    path: Bus_5_1
  - curve:
      serializedVersion: 2
      m_Curve:
      - serializedVersion: 2
        time: 0
        value: {x: -6.39, y: 0.08700001, z: -0.06640625}
        inSlope: {x: 0, y: -0.12525, z: 0}
        outSlope: {x: 0, y: -0.12525, z: 0}
        tangentMode: 0
      - serializedVersion: 2
        time: 1.3333334
        value: {x: -6.39, y: -0.08, z: -0.06640625}
        inSlope: {x: 0, y: 0, z: 0}
        outSlope: {x: 0, y: 0, z: 0}
        tangentMode: 0
      - serializedVersion: 2
        time: 2.6666667
        value: {x: -6.39, y: 0.08700001, z: -0.06640625}
        inSlope: {x: 0, y: 0.12525, z: 0}
        outSlope: {x: 0, y: 0.12525, z: 0}
        tangentMode: 0
      m_PreInfinity: 2
      m_PostInfinity: 2
      m_RotationOrder: 4
    path: Bus_5_1_lights
  m_ScaleCurves: []
  m_FloatCurves: []
  m_PPtrCurves: []
  m_SampleRate: 60
  m_WrapMode: 0
  m_Bounds:
    m_Center: {x: 0, y: 0, z: 0}
    m_Extent: {x: 0, y: 0, z: 0}
  m_ClipBindingConstant:
    genericBindings:
    - serializedVersion: 2
      path: 1985397869
      attribute: 1
      script: {fileID: 0}
      typeID: 4
      customType: 0
      isPPtrCurve: 0
    - serializedVersion: 2
      path: 1485889991
      attribute: 1
      script: {fileID: 0}
      typeID: 4
      customType: 0
      isPPtrCurve: 0
    pptrCurveMapping: []
  m_AnimationClipSettings:
    serializedVersion: 2
    m_AdditiveReferencePoseClip: {fileID: 0}
    m_AdditiveReferencePoseTime: 0
    m_StartTime: 0
    m_StopTime: 2.6666667
    m_OrientationOffsetY: 0
    m_Level: 0
    m_CycleOffset: 0
    m_HasAdditiveReferencePose: 0
    m_LoopTime: 1
    m_LoopBlend: 0
    m_LoopBlendOrientation: 0
    m_LoopBlendPositionY: 0
    m_LoopBlendPositionXZ: 0
    m_KeepOriginalOrientation: 0
    m_KeepOriginalPositionY: 1
    m_KeepOriginalPositionXZ: 0
    m_HeightFromFeet: 0
    m_Mirror: 0
  m_EditorCurves:
  - curve:
      serializedVersion: 2
      m_Curve:
      - serializedVersion: 2
        time: 0
        value: -9.93
        inSlope: 0
        outSlope: 0
        tangentMode: 34
      - serializedVersion: 2
        time: 1.3333334
        value: -9.93
        inSlope: 0
        outSlope: 0
        tangentMode: 34
      - serializedVersion: 2
        time: 2.6666667
        value: -9.93
        inSlope: 0
        outSlope: 0
        tangentMode: 34
      m_PreInfinity: 2
      m_PostInfinity: 2
      m_RotationOrder: 4
    attribute: m_LocalPosition.x
    path: Bus_5_1
    classID: 4
    script: {fileID: 0}
  - curve:
      serializedVersion: 2
      m_Curve:
      - serializedVersion: 2
        time: 0
        value: 0.65
        inSlope: -0.12749998
        outSlope: -0.12749998
        tangentMode: 34
      - serializedVersion: 2
        time: 1.3333334
        value: 0.48
        inSlope: 0
        outSlope: 0
        tangentMode: 34
      - serializedVersion: 2
        time: 2.6666667
        value: 0.65
        inSlope: 0.12749998
        outSlope: 0.12749998
        tangentMode: 0
      m_PreInfinity: 2
      m_PostInfinity: 2
      m_RotationOrder: 4
    attribute: m_LocalPosition.y
    path: Bus_5_1
    classID: 4
    script: {fileID: 0}
  - curve:
      serializedVersion: 2
      m_Curve:
      - serializedVersion: 2
        time: 0
        value: -0.06640625
        inSlope: 0
        outSlope: 0
        tangentMode: 34
      - serializedVersion: 2
        time: 1.3333334
        value: -0.06640625
        inSlope: 0
        outSlope: 0
        tangentMode: 34
      - serializedVersion: 2
        time: 2.6666667
        value: -0.06640625
        inSlope: 0
        outSlope: 0
        tangentMode: 34
      m_PreInfinity: 2
      m_PostInfinity: 2
      m_RotationOrder: 4
    attribute: m_LocalPosition.z
    path: Bus_5_1
    classID: 4
    script: {fileID: 0}
  - curve:
      serializedVersion: 2
      m_Curve:
      - serializedVersion: 2
        time: 0
        value: -6.39
        inSlope: 0
        outSlope: 0
        tangentMode: 34
      - serializedVersion: 2
        time: 1.3333334
        value: -6.39
        inSlope: 0
        outSlope: 0
        tangentMode: 34
      - serializedVersion: 2
        time: 2.6666667
        value: -6.39
        inSlope: 0
        outSlope: 0
        tangentMode: 34
      m_PreInfinity: 2
      m_PostInfinity: 2
      m_RotationOrder: 4
    attribute: m_LocalPosition.x
    path: Bus_5_1_lights
    classID: 4
    script: {fileID: 0}
  - curve:
      serializedVersion: 2
      m_Curve:
      - serializedVersion: 2
        time: 0
        value: 0.08700001
        inSlope: -0.12525
        outSlope: -0.12525
        tangentMode: 34
      - serializedVersion: 2
        time: 1.3333334
        value: -0.08
        inSlope: 0
        outSlope: 0
        tangentMode: 34
      - serializedVersion: 2
        time: 2.6666667
        value: 0.08700001
        inSlope: 0.12525
        outSlope: 0.12525
        tangentMode: 0
      m_PreInfinity: 2
      m_PostInfinity: 2
      m_RotationOrder: 4
    attribute: m_LocalPosition.y
    path: Bus_5_1_lights
    classID: 4
    script: {fileID: 0}
  - curve:
      serializedVersion: 2
      m_Curve:
      - serializedVersion: 2
        time: 0
        value: -0.06640625
        inSlope: 0
        outSlope: 0
        tangentMode: 34
      - serializedVersion: 2
        time: 1.3333334
        value: -0.06640625
        inSlope: 0
        outSlope: 0
        tangentMode: 34
      - serializedVersion: 2
        time: 2.6666667
        value: -0.06640625
        inSlope: 0
        outSlope: 0
        tangentMode: 34
      m_PreInfinity: 2
      m_PostInfinity: 2
      m_RotationOrder: 4
    attribute: m_LocalPosition.z
    path: Bus_5_1_lights
    classID: 4
    script: {fileID: 0}
  m_EulerEditorCurves: []
  m_HasGenericRootTransform: 0
  m_HasMotionFloatCurves: 0
  m_GenerateMotionCurves: 0
  m_Events: []
